…
``` r
# Compute the median values of temperature, wind speed, and atmospheric pressure
# for each station
met_median <- met_dt %>%
  filter_at(vars(temp, wind.sp, atm.press),all_vars(!is.na(.))) %>%
  group_by(USAFID) %>%
  summarise(across(c(temp, wind.sp, atm.press), median))

# Find which stations have the median values of temperature
met_median %>%
  filter(temp == median(met_dt$temp)) %>%
  select(USAFID, temp)
```

    ## # A tibble: 58 × 2
    ##    USAFID  temp
    ##     <int> <dbl>
    ##  1 722247  21.7
    ##  2 722689  21.7
    ##  3 723010  21.7
    ##  4 723150  21.7
    ##  5 723170  21.7
    ##  6 723627  21.7
    ##  7 723630  21.7
    ##  8 723676  21.7
    ##  9 723783  21.7
    ## 10 723990  21.7
    ## # ℹ 48 more rows

``` r
# Find which stations have the median values of wind speed
met_median %>%
  filter(wind.sp == median(met_dt$wind.sp, na.rm = TRUE)) %>%
  select(USAFID, wind.sp)
```

    ## # A tibble: 364 × 2
    ##    USAFID wind.sp
    ##     <int>   <dbl>
    ##  1 720306     3.1
    ##  2 720333     3.1
    ##  3 720377     3.1
    ##  4 720379     3.1
    ##  5 720652     3.1
    ##  6 722011     3.1
    ##  7 722020     3.1
    ##  8 722026     3.1
    ##  9 722029     3.1
    ## 10 722034     3.1
    ## # ℹ 354 more rows
…
