…
# Find the most used words in each of the specialties
mt_spec_count |> 
  top_n(1, n)
```

    ## # A tibble: 31 × 3
    ## # Groups:   medical_specialty [30]
    ##    medical_specialty          word          n
    ##    <chr>                      <chr>     <int>
    ##  1 Allergy / Immunology       allergies     4
    ##  2 Bariatrics                 patient      29
    ##  3 Cardiovascular / Pulmonary normal       25
    ##  4 Dentistry                  removed      10
    ##  5 Gastroenterology           patient     835
    ##  6 General Medicine           patient    1356
    ##  7 Hematology - Oncology      patient     316
    ##  8 Hospice - Palliative Care  patient      43
    ##  9 IME-QME-Work Comp etc.     pain        152
    ## 10 Lab Medicine - Pathology   cm           35
    ## # ℹ 21 more rows

``` r
# Find the most 5 used words in each of the specialties
mt_spec_count |> 
  top_n(5, n)
```

    ## # A tibble: 170 × 3
    ## # Groups:   medical_specialty [30]
    ##    medical_specialty    word             n
    ##    <chr>                <chr>        <int>
    ##  1 Allergy / Immunology allergies        4
    ##  2 Allergy / Immunology allegra          3
    ##  3 Allergy / Immunology clear            3
    ##  4 Allergy / Immunology prescription     3
    ##  5 Allergy / Immunology sprays           3
    ##  6 Bariatrics           patient         29
    ##  7 Bariatrics           history         21
    ##  8 Bariatrics           placed          21
    ##  9 Bariatrics           abdomen         20
    ## 10 Bariatrics           procedure       18
    ## # ℹ 160 more rows
…
